<?xml version="1.0" encoding="utf-8"?>
<!-- Generator: Adobe Illustrator 18.0.0, SVG Export Plug-In . SVG Version: 6.00 Build 0)  -->
<!DOCTYPE svg PUBLIC "-//W3C//DTD SVG 1.1//EN" "http://www.w3.org/Graphics/SVG/1.1/DTD/svg11.dtd">
<svg version="1.1" id="Capa_1" xmlns="http://www.w3.org/2000/svg" xmlns:xlink="http://www.w3.org/1999/xlink" x="0px" y="0px"
	 viewBox="0 0 12.4 12.4" enable-background="new 0 0 12.4 12.4" xml:space="preserve">
<g>
	<g>
		<g>
			<path fill="#2F5E6F" d="M6.2,12.4C2.8,12.4,0,9.6,0,6.2C0,2.8,2.8,0,6.2,0s6.2,2.8,6.2,6.2C12.4,9.6,9.6,12.4,6.2,12.4z M6.2,1.1
				c-2.8,0-5.1,2.3-5.1,5.1c0,2.8,2.3,5.1,5.1,5.1s5.1-2.3,5.1-5.1C11.3,3.4,9,1.1,6.2,1.1z"/>
		</g>
		<g>
			<path fill="#2F5E6F" d="M6.7,3.4c0,0.3-0.2,0.5-0.6,0.5c-0.3,0-0.5-0.2-0.5-0.5c0-0.3,0.2-0.6,0.6-0.6C6.5,2.8,6.7,3.1,6.7,3.4z
				 M5.8,9.6V5.5h0.9v4.1H5.8z"/>
			<path fill="#2F5E6F" d="M7.2,10.1h-2V5h2V10.1z M6.2,4.5C5.6,4.5,5.1,4,5.1,3.4c0-0.6,0.5-1.1,1.1-1.1c0.6,0,1.1,0.5,1.1,1.1
				c0,0.3-0.1,0.6-0.3,0.8C6.8,4.3,6.5,4.5,6.2,4.5z"/>
		</g>
	</g>
</g>
</svg>
